<svg width="176" height="213" viewBox="0 0 176 213" fill="none" xmlns="http://www.w3.org/2000/svg">
<path d="M15 39C15 25.1929 26.1929 14 40 14H132C145.807 14 157 25.1929 157 39V205H15V39Z" fill="#764131"/>
<path d="M15 39C15 25.1929 26.1929 14 40 14H132C145.807 14 157 25.1929 157 39V205H15V39Z" fill="url(#paint0_linear)"/>
<g filter="url(#filter0_d)">
<rect x="141" y="33" width="19" height="172" fill="#815630"/>
</g>
<g filter="url(#filter1_d)">
<rect x="15" y="33" width="19" height="172" fill="#815630"/>
</g>
<g filter="url(#filter2_d)">
<path d="M4 0H171.5L165 33H9L4 0Z" fill="#815630"/>
</g>
<path d="M73.1186 65.7979C74.8374 65.4541 76.5405 65.1104 78.228 64.7666C79.9155 64.3916 81.603 64.0791 83.2905 63.8291C85.0093 63.5791 86.7593 63.4072 88.5405 63.3135C90.3218 63.2197 92.1968 63.2666 94.1655 63.4541C94.9468 64.2666 95.6343 65.1572 96.228 66.126C96.8218 67.0635 97.3843 68.0479 97.9155 69.0791C97.853 69.2979 97.8061 69.5166 97.7749 69.7354C97.7749 69.9541 97.7436 70.1885 97.6811 70.4385C97.5249 70.8447 97.3061 71.2197 97.0249 71.5635C96.7749 71.876 96.5718 72.251 96.4155 72.6885C95.6343 73.126 94.8843 73.5947 94.1655 74.0947C93.478 74.5947 92.7905 75.1104 92.103 75.6416C91.5405 75.8916 90.9468 76.126 90.3218 76.3447C89.728 76.5322 89.2749 76.9072 88.9624 77.4697C89.9936 77.9072 90.8999 78.4385 91.6811 79.0635C92.4624 79.6885 93.1499 80.3916 93.7436 81.1729C94.3374 81.9541 94.853 82.7979 95.2905 83.7041C95.728 84.6104 96.1186 85.5479 96.4624 86.5166C96.3999 86.9854 96.3218 87.4697 96.228 87.9697C96.1343 88.4697 96.1343 88.8916 96.228 89.2354C96.0093 89.8916 95.7124 90.4229 95.3374 90.8291C94.9936 91.2041 94.6499 91.7197 94.3061 92.376C93.2124 92.8447 92.3218 93.501 91.6343 94.3447C91.3218 94.3447 91.1655 94.2822 91.1655 94.1572C90.1968 94.8135 89.0718 95.376 87.7905 95.8447C86.5093 96.2822 85.1343 96.626 83.6655 96.876C82.1968 97.126 80.6499 97.2666 79.0249 97.2979C77.3999 97.3291 75.7749 97.2666 74.1499 97.1104C74.0249 97.0166 73.9155 96.9072 73.8218 96.7822C73.728 96.6572 73.5405 96.6104 73.2593 96.6416C73.1343 96.3291 72.9624 96.0635 72.7436 95.8447C72.5561 95.5947 72.3999 95.3135 72.2749 95.001C72.5874 94.501 72.7905 93.9229 72.8843 93.2666C73.0093 92.6104 73.1343 91.9854 73.2593 91.3916C73.4155 90.7666 73.6186 90.2197 73.8686 89.751C74.1186 89.251 74.5405 88.8916 75.1343 88.6729C75.3843 88.6416 75.5249 88.7197 75.5561 88.9072C75.5874 89.0947 75.6811 89.2197 75.8374 89.2822C77.0561 89.2822 78.2749 89.2666 79.4936 89.2354C80.7124 89.1729 81.8686 89.0635 82.9624 88.9072C84.0561 88.7197 85.0718 88.4541 86.0093 88.1104C86.978 87.7666 87.8061 87.2822 88.4936 86.6572C87.5561 85.9072 86.4624 85.3447 85.2124 84.9697C83.9624 84.5635 82.7436 84.1729 81.5561 83.7979C80.3999 83.4229 79.3686 82.9541 78.4624 82.3916C77.5561 81.7979 76.9624 80.9385 76.6811 79.8135C76.8374 79.0947 76.9468 78.4541 77.0093 77.8916C77.0718 77.3291 77.1499 76.8135 77.2436 76.3447C77.3374 75.876 77.478 75.4385 77.6655 75.0322C77.8843 74.5947 78.228 74.1729 78.6968 73.7666C78.5405 73.6729 78.3061 73.6572 77.9936 73.7197C77.7124 73.751 77.3999 73.8291 77.0561 73.9541C76.7124 74.0479 76.3686 74.1729 76.0249 74.3291C75.7124 74.4541 75.4468 74.5635 75.228 74.6572C74.5718 74.501 73.8999 74.4072 73.2124 74.376C72.5561 74.3135 71.9468 74.1104 71.3843 73.7666C71.3218 73.4229 71.2436 73.0479 71.1499 72.6416C71.0561 72.2041 70.9936 71.7666 70.9624 71.3291C70.9311 70.8916 70.9624 70.4541 71.0561 70.0166C71.1499 69.5791 71.3686 69.1729 71.7124 68.7979C71.6499 68.5791 71.603 68.3604 71.5718 68.1416C71.5405 67.9229 71.478 67.7354 71.3843 67.5791C71.728 67.2979 72.0874 67.0166 72.4624 66.7354C72.8686 66.4541 73.0874 66.1416 73.1186 65.7979Z" fill="white"/>
<defs>
<filter id="filter0_d" x="137" y="33" width="27" height="180" filterUnits="userSpaceOnUse" color-interpolation-filters="sRGB">
<feFlood flood-opacity="0" result="BackgroundImageFix"/>
<feColorMatrix in="SourceAlpha" type="matrix" values="0 0 0 0 0 0 0 0 0 0 0 0 0 0 0 0 0 0 127 0"/>
<feOffset dy="4"/>
<feGaussianBlur stdDeviation="2"/>
<feColorMatrix type="matrix" values="0 0 0 0 0 0 0 0 0 0 0 0 0 0 0 0 0 0 0.25 0"/>
<feBlend mode="normal" in2="BackgroundImageFix" result="effect1_dropShadow"/>
<feBlend mode="normal" in="SourceGraphic" in2="effect1_dropShadow" result="shape"/>
</filter>
<filter id="filter1_d" x="11" y="33" width="27" height="180" filterUnits="userSpaceOnUse" color-interpolation-filters="sRGB">
<feFlood flood-opacity="0" result="BackgroundImageFix"/>
<feColorMatrix in="SourceAlpha" type="matrix" values="0 0 0 0 0 0 0 0 0 0 0 0 0 0 0 0 0 0 127 0"/>
<feOffset dy="4"/>
<feGaussianBlur stdDeviation="2"/>
<feColorMatrix type="matrix" values="0 0 0 0 0 0 0 0 0 0 0 0 0 0 0 0 0 0 0.25 0"/>
<feBlend mode="normal" in2="BackgroundImageFix" result="effect1_dropShadow"/>
<feBlend mode="normal" in="SourceGraphic" in2="effect1_dropShadow" result="shape"/>
</filter>
<filter id="filter2_d" x="0" y="0" width="175.5" height="41" filterUnits="userSpaceOnUse" color-interpolation-filters="sRGB">
<feFlood flood-opacity="0" result="BackgroundImageFix"/>
<feColorMatrix in="SourceAlpha" type="matrix" values="0 0 0 0 0 0 0 0 0 0 0 0 0 0 0 0 0 0 127 0"/>
<feOffset dy="4"/>
<feGaussianBlur stdDeviation="2"/>
<feColorMatrix type="matrix" values="0 0 0 0 0 0 0 0 0 0 0 0 0 0 0 0 0 0 0.25 0"/>
<feBlend mode="normal" in2="BackgroundImageFix" result="effect1_dropShadow"/>
<feBlend mode="normal" in="SourceGraphic" in2="effect1_dropShadow" result="shape"/>
</filter>
<linearGradient id="paint0_linear" x1="86" y1="14" x2="86" y2="235" gradientUnits="userSpaceOnUse">
<stop stop-color="#5E2A1B"/>
<stop offset="1" stop-color="#7C4F42"/>
</linearGradient>
</defs>
</svg>
