<svg width="640" height="640" viewBox="0 0 640 640" fill="none" xmlns="http://www.w3.org/2000/svg">
<rect x="-1.5" y="377.5" width="643" height="264" fill="#59391A"/>
<rect x="-1.5" y="377.5" width="643" height="264" fill="url(#paint0_linear)"/>
<rect x="-1.5" y="377.5" width="643" height="264" stroke="#543D28" stroke-width="3"/>
<rect width="640" height="379" fill="#A4744A"/>
<rect width="640" height="379" fill="url(#paint1_linear)"/>
<rect width="640" height="379" fill="url(#paint2_linear)"/>
<path d="M116.398 79.9219C115.492 79.2344 114.742 78.375 114.148 77.3438C113.586 76.3125 113.133 75.2188 112.789 74.0625C112.477 72.9062 112.258 71.7188 112.133 70.5C112.039 69.25 112.008 68.0625 112.039 66.9375C112.32 66.0938 112.664 65.3281 113.07 64.6406C113.477 63.9219 113.93 63.25 114.43 62.625C114.93 61.9688 115.445 61.3594 115.977 60.7969C116.539 60.2031 117.086 59.6094 117.617 59.0156C117.805 59.0156 117.977 59.0625 118.133 59.1562C118.258 58.8125 118.445 58.5156 118.695 58.2656C118.945 58.0156 119.211 57.7969 119.492 57.6094C119.773 57.3906 120.055 57.1875 120.336 57C120.617 56.7812 120.852 56.5312 121.039 56.25C121.82 56.0625 122.508 55.7969 123.102 55.4531C123.727 55.1094 124.32 54.7344 124.883 54.3281C125.445 53.9219 126.023 53.5469 126.617 53.2031C127.211 52.8594 127.898 52.5938 128.68 52.4062C128.961 52.0938 129.305 51.8281 129.711 51.6094C130.148 51.3906 130.57 51.1875 130.977 51C131.414 50.8125 131.82 50.6094 132.195 50.3906C132.602 50.1719 132.93 49.875 133.18 49.5C133.367 49.75 133.633 49.8438 133.977 49.7812C134.32 49.6875 134.633 49.5938 134.914 49.5C135.102 49.4688 135.258 49.5 135.383 49.5938C135.508 49.6875 135.617 49.7969 135.711 49.9219C135.836 50.0156 135.93 50.0781 135.992 50.1094C136.086 50.1406 136.18 50.0469 136.273 49.8281C136.523 49.8594 136.586 49.9688 136.461 50.1562C136.367 50.3438 136.305 50.4688 136.273 50.5312C136.586 50.4688 136.836 50.5312 137.023 50.7188C137.242 50.875 137.57 50.9844 138.008 51.0469C138.164 51.2031 138.211 51.3281 138.148 51.4219C138.086 51.5156 138.039 51.6719 138.008 51.8906C139.133 52.2344 139.852 52.7812 140.164 53.5312C140.477 54.25 140.508 55.0156 140.258 55.8281C140.008 56.6094 139.539 57.3438 138.852 58.0312C138.195 58.6875 137.461 59.125 136.648 59.3438C135.68 59.5938 134.773 59.8438 133.93 60.0938C133.117 60.3438 132.32 60.625 131.539 60.9375C130.789 61.25 130.07 61.625 129.383 62.0625C128.727 62.4688 128.148 62.9531 127.648 63.5156C126.773 63.7656 125.977 64.1094 125.258 64.5469C124.57 64.9844 123.914 65.4688 123.289 66C122.695 66.5312 122.117 67.0938 121.555 67.6875C120.992 68.25 120.43 68.8125 119.867 69.375C119.867 69.9062 119.773 70.3125 119.586 70.5938C119.398 70.875 119.195 71.1562 118.977 71.4375C119.039 72.0312 119.164 72.5469 119.352 72.9844C119.57 73.3906 119.789 73.8125 120.008 74.25C122.508 75 125.148 75.4688 127.93 75.6562C130.742 75.8125 133.523 75.9062 136.273 75.9375C136.555 76.3125 136.867 76.6719 137.211 77.0156C137.586 77.3281 137.914 77.6562 138.195 78C138.508 78.3438 138.742 78.75 138.898 79.2188C139.086 79.6562 139.133 80.1875 139.039 80.8125C138.508 81.3438 137.93 81.8594 137.305 82.3594C136.68 82.8281 136.055 83.2969 135.43 83.7656C135.148 83.7969 134.805 83.7969 134.398 83.7656C134.023 83.7344 133.617 83.7188 133.18 83.7188C132.773 83.7188 132.352 83.75 131.914 83.8125C131.508 83.8438 131.117 83.9375 130.742 84.0938C128.773 84.0312 126.758 83.7969 124.695 83.3906C122.633 82.9531 120.727 82.4375 118.977 81.8438C118.633 81.4375 118.273 81.0625 117.898 80.7188C117.523 80.3438 117.023 80.0781 116.398 79.9219ZM165.383 79.4531C165.445 80.2656 165.352 80.9375 165.102 81.4688C164.852 82 164.508 82.4531 164.07 82.8281C163.633 83.2031 163.133 83.5 162.57 83.7188C162.008 83.9375 161.461 84.1406 160.93 84.3281C160.68 84.1719 160.43 84.0156 160.18 83.8594C159.961 83.6719 159.695 83.5312 159.383 83.4375C158.977 82.6875 158.586 82.0312 158.211 81.4688C157.836 80.875 157.664 80.2031 157.695 79.4531C157.695 79.4219 157.711 79.25 157.742 78.9375C157.805 78.625 157.867 78.2812 157.93 77.9062C158.023 77.5312 158.086 77.1875 158.117 76.875C158.18 76.5312 158.211 76.3438 158.211 76.3125C157.492 76.375 156.742 76.5312 155.961 76.7812C155.18 77.0312 154.414 77.3281 153.664 77.6719C152.945 78.0156 152.258 78.3594 151.602 78.7031C150.977 79.0469 150.461 79.3438 150.055 79.5938C150.055 79.6875 149.992 79.9219 149.867 80.2969C149.742 80.6406 149.586 81.0156 149.398 81.4219C149.211 81.7969 149.008 82.1406 148.789 82.4531C148.57 82.7656 148.352 82.9219 148.133 82.9219C148.164 83.0156 148.211 83.1094 148.273 83.2031C148.336 83.2969 148.336 83.4219 148.273 83.5781C147.836 83.7031 147.445 83.8594 147.102 84.0469C146.758 84.2656 146.398 84.4375 146.023 84.5625C145.648 84.7188 145.242 84.7969 144.805 84.7969C144.367 84.7969 143.852 84.6406 143.258 84.3281C143.258 84.1406 143.18 83.9844 143.023 83.8594C142.867 83.7031 142.695 83.5781 142.508 83.4844C142.352 83.3594 142.211 83.2656 142.086 83.2031C141.961 83.1094 141.898 83.0312 141.898 82.9688C141.742 83 141.68 82.8906 141.711 82.6406C141.742 82.3906 141.867 82.3281 142.086 82.4531C141.742 82.0156 141.523 81.6406 141.43 81.3281C141.367 80.9844 141.195 80.5625 140.914 80.0625C140.977 80 141.039 79.8906 141.102 79.7344C141.133 79.5781 141.164 79.4375 141.195 79.3125C141.227 79.1875 141.273 79.0938 141.336 79.0312C141.398 78.9688 141.477 78.9844 141.57 79.0781C141.508 78.7969 141.508 78.5625 141.57 78.375C141.633 78.1875 141.695 78.0156 141.758 77.8594C141.82 77.7031 141.867 77.5469 141.898 77.3906C141.93 77.2344 141.883 77.0625 141.758 76.875C142.258 76.1875 142.586 75.4531 142.742 74.6719C142.898 73.8594 142.992 73.125 143.023 72.4688C143.242 72.25 143.43 71.9375 143.586 71.5312C143.773 71.125 143.914 70.7188 144.008 70.3125C144.102 69.875 144.133 69.4688 144.102 69.0938C144.102 68.6875 144.055 68.3594 143.961 68.1094C143.992 67.9531 144.164 67.9062 144.477 67.9688C144.664 66.9375 144.789 65.7812 144.852 64.5C144.945 63.1875 145.086 61.9531 145.273 60.7969C145.461 59.6094 145.773 58.5781 146.211 57.7031C146.648 56.7969 147.352 56.2031 148.32 55.9219C148.508 56.5781 148.742 57.1562 149.023 57.6562C149.336 58.1562 149.664 58.6406 150.008 59.1094C150.383 59.5469 150.742 60 151.086 60.4688C151.461 60.9375 151.805 61.4688 152.117 62.0625C152.086 62.6562 152.023 63.3438 151.93 64.125C151.836 64.9062 151.711 65.7031 151.555 66.5156C151.43 67.3281 151.289 68.1094 151.133 68.8594C151.008 69.6094 150.883 70.25 150.758 70.7812C150.789 70.9375 150.867 71.0312 150.992 71.0625C151.148 71.0938 151.18 71.2344 151.086 71.4844C151.836 71.2969 152.617 71.125 153.43 70.9688C154.242 70.8125 155.055 70.6406 155.867 70.4531C156.68 70.2656 157.461 70.0625 158.211 69.8438C158.992 69.5938 159.711 69.2969 160.367 68.9531C160.523 67.7344 160.727 66.5156 160.977 65.2969C161.227 64.0781 161.258 62.8281 161.07 61.5469C161.227 61.4219 161.352 61.2656 161.445 61.0781C161.539 60.8906 161.695 60.7656 161.914 60.7031C161.758 60.1094 161.695 59.4844 161.727 58.8281C161.758 58.1719 161.867 57.5469 162.055 56.9531C162.273 56.3594 162.57 55.8594 162.945 55.4531C163.352 55.0156 163.836 54.7344 164.398 54.6094C164.742 55.1094 165.039 55.6562 165.289 56.25C165.539 56.8125 165.789 57.3906 166.039 57.9844C166.32 58.5469 166.602 59.0938 166.883 59.625C167.195 60.125 167.586 60.5625 168.055 60.9375C168.148 61.8438 168.211 62.7812 168.242 63.75C168.305 64.7188 168.352 65.7031 168.383 66.7031C168.133 67.8906 167.852 69.0469 167.539 70.1719C167.258 71.2656 167.055 72.4375 166.93 73.6875C166.711 73.9375 166.539 74.2188 166.414 74.5312C166.289 74.8438 166.164 75.1719 166.039 75.5156C165.914 75.8281 165.773 76.1406 165.617 76.4531C165.461 76.7344 165.273 76.9844 165.055 77.2031C165.18 77.5781 165.195 77.9375 165.102 78.2812C165.039 78.5938 165.133 78.9844 165.383 79.4531ZM196.648 69.9375C196.617 70.3125 196.648 70.6719 196.742 71.0156C196.836 71.3594 196.945 71.7031 197.07 72.0469C197.227 72.3594 197.367 72.6875 197.492 73.0312C197.617 73.375 197.711 73.7188 197.773 74.0625C197.836 74.5 197.836 74.9844 197.773 75.5156C197.711 76.0156 197.602 76.5156 197.445 77.0156C197.289 77.4844 197.086 77.9219 196.836 78.3281C196.586 78.7031 196.289 78.9844 195.945 79.1719C195.508 79.7344 194.977 80.1719 194.352 80.4844C193.727 80.7969 193.148 81.1719 192.617 81.6094C192.273 81.8281 191.883 81.9844 191.445 82.0781C191.039 82.1719 190.617 82.2656 190.18 82.3594C189.836 82.5469 189.43 82.75 188.961 82.9688C188.492 83.1562 188.008 83.3438 187.508 83.5312C187.008 83.6875 186.508 83.8125 186.008 83.9062C185.508 83.9688 185.07 83.9844 184.695 83.9531C183.758 84.2969 182.836 84.5156 181.93 84.6094C181.055 84.7344 180.023 84.6719 178.836 84.4219C177.711 84.5781 176.664 84.5312 175.695 84.2812C174.758 84.0312 173.914 83.6406 173.164 83.1094C172.445 82.5469 171.805 81.8906 171.242 81.1406C170.711 80.3594 170.273 79.5469 169.93 78.7031C169.68 76.9219 169.742 75.3125 170.117 73.875C170.492 72.4062 171.023 71.0625 171.711 69.8438C172.43 68.5938 173.242 67.4531 174.148 66.4219C175.055 65.3594 175.93 64.3281 176.773 63.3281C176.961 63.3906 177.102 63.3906 177.195 63.3281C177.32 63.2344 177.43 63.125 177.523 63C177.617 62.8438 177.711 62.7031 177.805 62.5781C177.93 62.4531 178.07 62.375 178.227 62.3438C178.445 61.875 178.758 61.5312 179.164 61.3125C179.602 61.0625 179.945 60.7188 180.195 60.2812C180.477 60.2188 180.711 60.125 180.898 60C181.086 59.875 181.258 59.7344 181.414 59.5781C181.602 59.4219 181.789 59.2812 181.977 59.1562C182.164 59 182.383 58.8906 182.633 58.8281V58.3125C183.195 58.0625 183.602 57.7812 183.852 57.4688C184.133 57.125 184.461 56.7188 184.836 56.25C185.117 56.2188 185.336 56.2031 185.492 56.2031C185.68 56.2031 185.945 56.1719 186.289 56.1094C186.539 55.6719 186.758 55.3438 186.945 55.125C187.164 54.9062 187.477 54.6719 187.883 54.4219C188.258 54.6094 188.664 54.7344 189.102 54.7969C189.57 54.8594 189.977 55.0625 190.32 55.4062C190.352 55.7188 190.445 55.9688 190.602 56.1562C190.758 56.3125 190.93 56.4688 191.117 56.625C191.305 56.75 191.477 56.8906 191.633 57.0469C191.82 57.2031 191.945 57.4219 192.008 57.7031C192.133 57.7344 192.211 57.7188 192.242 57.6562C192.305 57.5938 192.398 57.5781 192.523 57.6094C192.617 58.0469 192.727 58.3438 192.852 58.5C192.977 58.625 193.102 58.8906 193.227 59.2969C193.07 59.6094 192.945 59.9375 192.852 60.2812C192.789 60.5938 192.602 60.8281 192.289 60.9844C192.258 61.2031 192.32 61.3281 192.477 61.3594C192.633 61.3594 192.727 61.4375 192.758 61.5938C192.789 61.875 192.742 62.0781 192.617 62.2031C193.367 63.4219 194.039 64.7188 194.633 66.0938C195.227 67.4375 195.898 68.7188 196.648 69.9375ZM190.789 74.3906C190.914 74.0469 191.07 73.7656 191.258 73.5469C191.477 73.3281 191.602 73 191.633 72.5625C191.477 72.3125 191.383 72.125 191.352 72C191.32 71.8438 191.305 71.6094 191.305 71.2969C190.617 70.3281 190.023 69.2969 189.523 68.2031C189.023 67.0781 188.461 66.0312 187.836 65.0625C187.773 65.1875 187.664 65.3125 187.508 65.4375C187.352 65.5625 187.18 65.5312 186.992 65.3438C186.93 65.5938 186.82 65.7812 186.664 65.9062C186.508 66 186.336 66.0469 186.148 66.0469C185.961 66.0156 185.758 65.9688 185.539 65.9062C185.352 65.8125 185.18 65.7031 185.023 65.5781C184.117 66.2969 183.211 67 182.305 67.6875C181.398 68.375 180.586 69.1719 179.867 70.0781C179.742 70.1406 179.664 70.1719 179.633 70.1719C179.602 70.1406 179.508 70.1562 179.352 70.2188C179.102 70.8125 178.789 71.3594 178.414 71.8594C178.07 72.3281 177.727 72.8125 177.383 73.3125C177.039 73.8125 176.742 74.3438 176.492 74.9062C176.242 75.4688 176.102 76.125 176.07 76.875C176.602 77.3125 177.227 77.5781 177.945 77.6719C178.664 77.7656 179.398 77.7812 180.148 77.7188C180.93 77.6562 181.68 77.5625 182.398 77.4375C183.148 77.2812 183.836 77.2031 184.461 77.2031C185.773 76.8906 186.898 76.4844 187.836 75.9844C188.773 75.4531 189.758 74.9219 190.789 74.3906ZM226.836 69.9375C226.805 70.3125 226.836 70.6719 226.93 71.0156C227.023 71.3594 227.133 71.7031 227.258 72.0469C227.414 72.3594 227.555 72.6875 227.68 73.0312C227.805 73.375 227.898 73.7188 227.961 74.0625C228.023 74.5 228.023 74.9844 227.961 75.5156C227.898 76.0156 227.789 76.5156 227.633 77.0156C227.477 77.4844 227.273 77.9219 227.023 78.3281C226.773 78.7031 226.477 78.9844 226.133 79.1719C225.695 79.7344 225.164 80.1719 224.539 80.4844C223.914 80.7969 223.336 81.1719 222.805 81.6094C222.461 81.8281 222.07 81.9844 221.633 82.0781C221.227 82.1719 220.805 82.2656 220.367 82.3594C220.023 82.5469 219.617 82.75 219.148 82.9688C218.68 83.1562 218.195 83.3438 217.695 83.5312C217.195 83.6875 216.695 83.8125 216.195 83.9062C215.695 83.9688 215.258 83.9844 214.883 83.9531C213.945 84.2969 213.023 84.5156 212.117 84.6094C211.242 84.7344 210.211 84.6719 209.023 84.4219C207.898 84.5781 206.852 84.5312 205.883 84.2812C204.945 84.0312 204.102 83.6406 203.352 83.1094C202.633 82.5469 201.992 81.8906 201.43 81.1406C200.898 80.3594 200.461 79.5469 200.117 78.7031C199.867 76.9219 199.93 75.3125 200.305 73.875C200.68 72.4062 201.211 71.0625 201.898 69.8438C202.617 68.5938 203.43 67.4531 204.336 66.4219C205.242 65.3594 206.117 64.3281 206.961 63.3281C207.148 63.3906 207.289 63.3906 207.383 63.3281C207.508 63.2344 207.617 63.125 207.711 63C207.805 62.8438 207.898 62.7031 207.992 62.5781C208.117 62.4531 208.258 62.375 208.414 62.3438C208.633 61.875 208.945 61.5312 209.352 61.3125C209.789 61.0625 210.133 60.7188 210.383 60.2812C210.664 60.2188 210.898 60.125 211.086 60C211.273 59.875 211.445 59.7344 211.602 59.5781C211.789 59.4219 211.977 59.2812 212.164 59.1562C212.352 59 212.57 58.8906 212.82 58.8281V58.3125C213.383 58.0625 213.789 57.7812 214.039 57.4688C214.32 57.125 214.648 56.7188 215.023 56.25C215.305 56.2188 215.523 56.2031 215.68 56.2031C215.867 56.2031 216.133 56.1719 216.477 56.1094C216.727 55.6719 216.945 55.3438 217.133 55.125C217.352 54.9062 217.664 54.6719 218.07 54.4219C218.445 54.6094 218.852 54.7344 219.289 54.7969C219.758 54.8594 220.164 55.0625 220.508 55.4062C220.539 55.7188 220.633 55.9688 220.789 56.1562C220.945 56.3125 221.117 56.4688 221.305 56.625C221.492 56.75 221.664 56.8906 221.82 57.0469C222.008 57.2031 222.133 57.4219 222.195 57.7031C222.32 57.7344 222.398 57.7188 222.43 57.6562C222.492 57.5938 222.586 57.5781 222.711 57.6094C222.805 58.0469 222.914 58.3438 223.039 58.5C223.164 58.625 223.289 58.8906 223.414 59.2969C223.258 59.6094 223.133 59.9375 223.039 60.2812C222.977 60.5938 222.789 60.8281 222.477 60.9844C222.445 61.2031 222.508 61.3281 222.664 61.3594C222.82 61.3594 222.914 61.4375 222.945 61.5938C222.977 61.875 222.93 62.0781 222.805 62.2031C223.555 63.4219 224.227 64.7188 224.82 66.0938C225.414 67.4375 226.086 68.7188 226.836 69.9375ZM220.977 74.3906C221.102 74.0469 221.258 73.7656 221.445 73.5469C221.664 73.3281 221.789 73 221.82 72.5625C221.664 72.3125 221.57 72.125 221.539 72C221.508 71.8438 221.492 71.6094 221.492 71.2969C220.805 70.3281 220.211 69.2969 219.711 68.2031C219.211 67.0781 218.648 66.0312 218.023 65.0625C217.961 65.1875 217.852 65.3125 217.695 65.4375C217.539 65.5625 217.367 65.5312 217.18 65.3438C217.117 65.5938 217.008 65.7812 216.852 65.9062C216.695 66 216.523 66.0469 216.336 66.0469C216.148 66.0156 215.945 65.9688 215.727 65.9062C215.539 65.8125 215.367 65.7031 215.211 65.5781C214.305 66.2969 213.398 67 212.492 67.6875C211.586 68.375 210.773 69.1719 210.055 70.0781C209.93 70.1406 209.852 70.1719 209.82 70.1719C209.789 70.1406 209.695 70.1562 209.539 70.2188C209.289 70.8125 208.977 71.3594 208.602 71.8594C208.258 72.3281 207.914 72.8125 207.57 73.3125C207.227 73.8125 206.93 74.3438 206.68 74.9062C206.43 75.4688 206.289 76.125 206.258 76.875C206.789 77.3125 207.414 77.5781 208.133 77.6719C208.852 77.7656 209.586 77.7812 210.336 77.7188C211.117 77.6562 211.867 77.5625 212.586 77.4375C213.336 77.2812 214.023 77.2031 214.648 77.2031C215.961 76.8906 217.086 76.4844 218.023 75.9844C218.961 75.4531 219.945 74.9219 220.977 74.3906ZM229.508 62.9062C229.727 62.25 230.07 61.6875 230.539 61.2188C231.039 60.75 231.57 60.3594 232.133 60.0469C232.727 59.7031 233.336 59.4219 233.961 59.2031C234.586 58.9844 235.18 58.7969 235.742 58.6406C236.992 58.1094 238.32 57.6094 239.727 57.1406C241.164 56.6406 242.617 56.2031 244.086 55.8281C245.586 55.4531 247.117 55.2188 248.68 55.125C250.242 55 251.883 55.1875 253.602 55.6875C253.695 56 253.836 56.2969 254.023 56.5781C254.211 56.8594 254.398 57.1406 254.586 57.4219C254.805 57.7031 254.992 57.9844 255.148 58.2656C255.305 58.5156 255.398 58.7812 255.43 59.0625C255.742 59.3438 255.992 59.6562 256.18 60C256.367 60.3125 256.398 60.7344 256.273 61.2656C255.961 61.5156 255.648 61.75 255.336 61.9688C255.055 62.1562 254.742 62.3281 254.398 62.4844C253.242 62.2031 252.07 62.1094 250.883 62.2031C249.695 62.2969 248.633 62.375 247.695 62.4375C247.414 62.1562 247.07 62.0156 246.664 62.0156C246.289 62.0156 245.883 62.0781 245.445 62.2031C245.039 62.3281 244.617 62.4531 244.18 62.5781C243.773 62.7031 243.383 62.7344 243.008 62.6719C242.695 62.9219 242.305 63.0938 241.836 63.1875C241.398 63.25 240.914 63.3125 240.383 63.375C240.352 63.5312 240.383 63.6406 240.477 63.7031C240.57 63.7344 240.586 63.8281 240.523 63.9844C240.711 64.2031 240.945 64.3594 241.227 64.4531C241.539 64.5469 241.852 64.6406 242.164 64.7344C242.508 64.8281 242.805 64.9531 243.055 65.1094C243.305 65.2344 243.477 65.4531 243.57 65.7656C244.039 65.7656 244.445 65.875 244.789 66.0938C245.133 66.3125 245.414 66.5781 245.633 66.8906C245.852 67.2031 246.008 67.5469 246.102 67.9219C246.227 68.2656 246.289 68.5781 246.289 68.8594C246.383 69.1094 246.492 69.2188 246.617 69.1875C246.742 69.1562 246.883 69.2188 247.039 69.375C247.133 69.7812 247.367 70.2031 247.742 70.6406C248.117 71.0469 248.414 71.5 248.633 72C248.695 72.7812 248.742 73.4844 248.773 74.1094C248.805 74.7031 248.695 75.3125 248.445 75.9375C247.977 77.0938 247.32 78.125 246.477 79.0312C245.664 79.9375 244.727 80.75 243.664 81.4688C242.633 82.1562 241.523 82.75 240.336 83.25C239.148 83.75 237.992 84.1719 236.867 84.5156C236.742 84.4844 236.617 84.4844 236.492 84.5156C236.367 84.5469 236.336 84.4688 236.398 84.2812C236.148 84.5 235.867 84.6406 235.555 84.7031C235.273 84.7656 234.961 84.7812 234.617 84.75C234.273 84.75 233.914 84.7344 233.539 84.7031C233.195 84.6719 232.867 84.6875 232.555 84.75C232.336 84.5312 232.133 84.3125 231.945 84.0938C231.789 83.9062 231.664 83.6562 231.57 83.3438C231.414 83.3438 231.336 83.2656 231.336 83.1094C231.367 82.9531 231.32 82.875 231.195 82.875C231.383 82.5625 231.461 82.3906 231.43 82.3594C231.43 82.2969 231.383 82.25 231.289 82.2188C231.227 82.1875 231.164 82.1562 231.102 82.125C231.039 82.0625 231.023 81.9844 231.055 81.8906C231.18 81.6406 231.227 81.3594 231.195 81.0469C231.164 80.7031 231.133 80.3594 231.102 80.0156C231.07 79.6719 231.086 79.3438 231.148 79.0312C231.242 78.7188 231.477 78.4688 231.852 78.2812C232.914 78.4062 233.914 78.375 234.852 78.1875C235.82 77.9688 236.727 77.6719 237.57 77.2969C238.414 76.9219 239.211 76.5156 239.961 76.0781C240.742 75.6406 241.508 75.25 242.258 74.9062C242.352 74.625 242.477 74.3906 242.633 74.2031C242.82 74.0156 243.008 73.8438 243.195 73.6875C243.383 73.5312 243.555 73.3594 243.711 73.1719C243.867 72.9844 243.977 72.75 244.039 72.4688C244.07 72.25 244.008 72.125 243.852 72.0938C243.727 72.0312 243.664 71.9062 243.664 71.7188L243.148 71.5781C242.555 71.2344 241.883 70.9531 241.133 70.7344C240.383 70.4844 239.742 70.2188 239.211 69.9375C238.867 70.125 238.539 70.1719 238.227 70.0781C237.945 69.9844 237.57 69.8906 237.102 69.7969C236.039 69.7344 235.008 69.625 234.008 69.4688C233.039 69.3125 232.102 69.0312 231.195 68.625C231.133 68.4688 231.055 68.3281 230.961 68.2031C230.867 68.0781 230.695 68.0469 230.445 68.1094C230.258 67.8594 230.07 67.625 229.883 67.4062C229.695 67.1562 229.523 66.8906 229.367 66.6094C229.43 66.2344 229.477 65.9219 229.508 65.6719C229.539 65.3906 229.445 65.125 229.227 64.875C229.352 64.4688 229.445 64.1406 229.508 63.8906C229.57 63.6406 229.57 63.3125 229.508 62.9062ZM277.18 57.6094C277.211 57.8281 277.211 58 277.18 58.125C277.18 58.2188 277.164 58.3125 277.133 58.4062C277.133 58.5 277.133 58.6094 277.133 58.7344C277.133 58.8281 277.164 58.9844 277.227 59.2031C276.57 60.2656 275.805 61 274.93 61.4062C274.086 61.7812 273.164 62.0625 272.164 62.25C271.164 62.4062 270.133 62.5781 269.07 62.7656C268.039 62.9531 267.008 63.3594 265.977 63.9844C265.57 63.8281 265.195 63.8281 264.852 63.9844C264.539 64.1406 264.07 64.1875 263.445 64.125C263.258 64.3125 263.023 64.4531 262.742 64.5469C262.461 64.6094 262.18 64.6875 261.898 64.7812C262.023 65.0625 262.07 65.3594 262.039 65.6719C262.039 65.9531 262.086 66.1875 262.18 66.375C263.273 66.4688 264.477 66.4531 265.789 66.3281C267.133 66.2031 268.445 66.125 269.727 66.0938C269.758 66.25 269.742 66.3594 269.68 66.4219C269.617 66.4531 269.602 66.5312 269.633 66.6562C269.852 66.8125 270.07 67.0156 270.289 67.2656C270.508 67.4844 270.727 67.7031 270.945 67.9219C271.164 68.1406 271.383 68.3281 271.602 68.4844C271.852 68.6094 272.133 68.6562 272.445 68.625C272.57 68.875 272.648 69.1562 272.68 69.4688C272.742 69.75 272.711 70.0469 272.586 70.3594C272.086 70.7031 271.586 71.0625 271.086 71.4375C270.586 71.7812 270.055 72.0938 269.492 72.375C268.961 72.6562 268.383 72.8906 267.758 73.0781C267.164 73.2344 266.492 73.2969 265.742 73.2656C265.586 73.2656 265.461 73.2656 265.367 73.2656C265.305 73.2656 265.211 73.2188 265.086 73.125C264.836 73.2812 264.477 73.3281 264.008 73.2656C263.57 73.2031 263.227 73.25 262.977 73.4062C262.633 73.25 262.211 73.1875 261.711 73.2188C261.242 73.2188 260.82 73.1562 260.445 73.0312C259.945 73.6875 259.492 74.3906 259.086 75.1406C258.68 75.8906 258.32 76.6875 258.008 77.5312C259.07 77.6875 259.945 77.75 260.633 77.7188C261.352 77.6875 262.023 77.6406 262.648 77.5781C263.273 77.4844 263.914 77.4062 264.57 77.3438C265.227 77.25 266.055 77.2188 267.055 77.25C267.68 76.9062 268.414 76.6875 269.258 76.5938C270.133 76.4688 270.93 76.2812 271.648 76.0312C271.898 76.125 272.117 76.2969 272.305 76.5469C272.492 76.7656 272.664 76.9844 272.82 77.2031C273.008 77.3906 273.195 77.5625 273.383 77.7188C273.57 77.875 273.805 77.9375 274.086 77.9062C274.211 78.0312 274.289 78.1875 274.32 78.375C274.383 78.5312 274.43 78.6875 274.461 78.8438C274.492 79 274.539 79.1406 274.602 79.2656C274.695 79.3594 274.836 79.3906 275.023 79.3594C274.555 80.3906 274.008 81.1875 273.383 81.75C272.789 82.2812 272.102 82.6875 271.32 82.9688C270.539 83.25 269.664 83.4688 268.695 83.625C267.758 83.7812 266.711 83.9688 265.555 84.1875C265.273 84.25 265.039 84.2344 264.852 84.1406C264.664 84.0781 264.445 84.0469 264.195 84.0469C263.477 84.2031 262.617 84.3438 261.617 84.4688C260.617 84.5938 259.602 84.6406 258.57 84.6094C257.539 84.5781 256.555 84.4375 255.617 84.1875C254.68 83.9688 253.914 83.5625 253.32 82.9688C253.07 82.75 252.898 82.5 252.805 82.2188C252.742 81.9062 252.539 81.6719 252.195 81.5156C252.164 81.1094 252.102 80.6562 252.008 80.1562C251.914 79.6562 251.82 79.1406 251.727 78.6094C251.633 78.0469 251.555 77.5 251.492 76.9688C251.461 76.4375 251.492 75.9531 251.586 75.5156C251.68 75.0469 251.867 74.625 252.148 74.25C252.461 73.875 252.57 73.4688 252.477 73.0312C252.633 73 252.727 72.9219 252.758 72.7969C252.789 72.6406 252.914 72.5781 253.133 72.6094C253.32 72.0469 253.523 71.5156 253.742 71.0156C253.961 70.5156 254.18 70.0312 254.398 69.5625C254.648 69.0938 254.883 68.625 255.102 68.1562C255.352 67.6562 255.586 67.1094 255.805 66.5156C255.367 66.1094 255.039 65.6719 254.82 65.2031C254.633 64.7031 254.492 64.2188 254.398 63.75C254.305 63.25 254.227 62.75 254.164 62.25C254.102 61.7188 253.992 61.1875 253.836 60.6562C254.148 60.1875 254.523 59.8125 254.961 59.5312C255.43 59.2188 255.93 58.9688 256.461 58.7812C256.992 58.5938 257.57 58.4375 258.195 58.3125C258.82 58.1875 259.477 58.0469 260.164 57.8906C261.414 57.4844 262.523 57.1719 263.492 56.9531C264.492 56.7344 265.461 56.5625 266.398 56.4375C267.367 56.2812 268.367 56.1406 269.398 56.0156C270.43 55.8906 271.602 55.7031 272.914 55.4531C273.195 55.7344 273.461 55.875 273.711 55.875C273.836 55.5938 273.977 55.5156 274.133 55.6406C274.32 55.7344 274.398 55.6406 274.367 55.3594C274.68 55.8906 275.07 56.3438 275.539 56.7188C276.039 57.0625 276.586 57.3594 277.18 57.6094ZM308.82 71.7188C308.602 71.9062 308.414 72.1406 308.258 72.4219C308.102 72.6719 307.945 72.9375 307.789 73.2188C307.633 73.5625 307.461 73.8906 307.273 74.2031C307.086 74.5156 306.852 74.7969 306.57 75.0469C306.414 75.5156 306.258 75.8906 306.102 76.1719C305.945 76.4219 305.695 76.7188 305.352 77.0625C305.039 78.3125 304.305 79.6719 303.148 81.1406C303.117 81.4219 303.023 81.7031 302.867 81.9844C302.742 82.2344 302.602 82.4844 302.445 82.7344C302.383 82.8281 302.32 82.9375 302.258 83.0625C302.195 83.1562 302.148 83.2344 302.117 83.2969L302.023 83.7656C301.867 84.0156 301.695 84.2344 301.508 84.4219C301.32 84.6094 301.148 84.7812 300.992 84.9375C300.93 85.0312 300.82 85.1562 300.664 85.3125L299.961 85.5938C297.68 85.2812 296.289 84.0625 295.789 81.9375L295.836 81.4688C295.898 81.3125 295.945 81.1562 295.977 81C296.039 80.8125 296.102 80.625 296.164 80.4375C296.289 80 296.43 79.5625 296.586 79.125C296.773 78.6875 297.039 78.2969 297.383 77.9531C297.445 77.7344 297.586 77.3906 297.805 76.9219C298.023 76.4219 298.398 75.6875 298.93 74.7188C299.367 73.9688 299.711 73.375 299.961 72.9375C300.211 72.5 300.414 72.1562 300.57 71.9062C300.258 71.4062 299.883 70.9531 299.445 70.5469C299.039 69.7656 298.68 69.0156 298.367 68.2969C298.086 67.5781 297.867 66.9375 297.711 66.375C297.68 65.9688 297.633 65.625 297.57 65.3438C297.508 65.0625 297.445 64.7656 297.383 64.4531C297.289 64.1094 297.211 63.7656 297.148 63.4219C297.086 63.0781 297.055 62.7188 297.055 62.3438C296.898 62.125 296.805 61.9062 296.773 61.6875L296.867 61.2188C296.961 61 296.977 60.7188 296.914 60.375C296.852 60 296.773 59.625 296.68 59.25C296.617 58.9375 296.539 58.5938 296.445 58.2188C296.383 57.8438 296.367 57.4688 296.398 57.0938C296.43 56.7188 296.523 56.375 296.68 56.0625C296.867 55.7188 297.164 55.4219 297.57 55.1719L298.367 55.125C298.648 55.2812 298.914 55.4375 299.164 55.5938C299.445 55.7188 299.711 55.8594 299.961 56.0156C300.305 56.1719 300.633 56.3281 300.945 56.4844C301.258 56.6406 301.586 56.8438 301.93 57.0938L302.258 57.75L302.867 58.2656V58.7812C302.898 58.9062 302.914 59.0781 302.914 59.2969C302.914 59.7031 302.977 59.9531 303.102 60.0469L303.289 60.6094C303.289 61.0469 303.336 61.4688 303.43 61.875C303.523 62.25 303.617 62.6094 303.711 62.9531C303.805 63.2969 303.898 63.6562 303.992 64.0312C304.086 64.4062 304.102 64.8125 304.039 65.25C304.227 65.1562 304.383 65.0469 304.508 64.9219C304.57 64.8594 304.633 64.8125 304.695 64.7812C304.758 64.75 304.82 64.7031 304.883 64.6406L307.648 60.8906L307.555 60.4219L308.539 59.4844C308.789 59.2344 309.023 59 309.242 58.7812C309.492 58.5625 309.695 58.3281 309.852 58.0781L310.367 57.7031C311.367 56.1406 312.789 55.1719 314.633 54.7969L315.289 54.7031L315.477 55.3125C315.602 55.6562 315.852 55.9688 316.227 56.25C316.633 56.5312 317.055 56.7969 317.492 57.0469L317.914 57.3281C318.07 57.6406 318.148 57.875 318.148 58.0312C318.148 58.1875 318.133 58.3281 318.102 58.4531L318.289 58.9219C318.039 59.6719 317.727 60.2188 317.352 60.5625C317.008 60.9062 316.664 61.2188 316.32 61.5C316.039 61.75 315.773 61.9844 315.523 62.2031C315.305 62.3906 315.133 62.6406 315.008 62.9531L314.68 63.3281C314.023 63.7031 313.602 64.2031 313.414 64.8281L313.273 65.3906H312.711C312.68 65.3906 312.602 65.4531 312.477 65.5781C312.383 65.6719 312.227 65.9375 312.008 66.375C311.789 66.6875 311.633 66.8906 311.539 66.9844C311.445 67.0781 311.367 67.1562 311.305 67.2188C311.273 67.3438 311.227 67.4688 311.164 67.5938C311.133 67.6875 311.086 67.8125 311.023 67.9688C310.617 68.375 310.367 68.6875 310.273 68.9062C310.18 69.0938 310.07 69.3125 309.945 69.5625C309.82 69.8125 309.695 70.0625 309.57 70.3125C309.477 70.5312 309.305 70.7656 309.055 71.0156L308.82 71.7188ZM338.914 69.9375C338.883 70.3125 338.914 70.6719 339.008 71.0156C339.102 71.3594 339.211 71.7031 339.336 72.0469C339.492 72.3594 339.633 72.6875 339.758 73.0312C339.883 73.375 339.977 73.7188 340.039 74.0625C340.102 74.5 340.102 74.9844 340.039 75.5156C339.977 76.0156 339.867 76.5156 339.711 77.0156C339.555 77.4844 339.352 77.9219 339.102 78.3281C338.852 78.7031 338.555 78.9844 338.211 79.1719C337.773 79.7344 337.242 80.1719 336.617 80.4844C335.992 80.7969 335.414 81.1719 334.883 81.6094C334.539 81.8281 334.148 81.9844 333.711 82.0781C333.305 82.1719 332.883 82.2656 332.445 82.3594C332.102 82.5469 331.695 82.75 331.227 82.9688C330.758 83.1562 330.273 83.3438 329.773 83.5312C329.273 83.6875 328.773 83.8125 328.273 83.9062C327.773 83.9688 327.336 83.9844 326.961 83.9531C326.023 84.2969 325.102 84.5156 324.195 84.6094C323.32 84.7344 322.289 84.6719 321.102 84.4219C319.977 84.5781 318.93 84.5312 317.961 84.2812C317.023 84.0312 316.18 83.6406 315.43 83.1094C314.711 82.5469 314.07 81.8906 313.508 81.1406C312.977 80.3594 312.539 79.5469 312.195 78.7031C311.945 76.9219 312.008 75.3125 312.383 73.875C312.758 72.4062 313.289 71.0625 313.977 69.8438C314.695 68.5938 315.508 67.4531 316.414 66.4219C317.32 65.3594 318.195 64.3281 319.039 63.3281C319.227 63.3906 319.367 63.3906 319.461 63.3281C319.586 63.2344 319.695 63.125 319.789 63C319.883 62.8438 319.977 62.7031 320.07 62.5781C320.195 62.4531 320.336 62.375 320.492 62.3438C320.711 61.875 321.023 61.5312 321.43 61.3125C321.867 61.0625 322.211 60.7188 322.461 60.2812C322.742 60.2188 322.977 60.125 323.164 60C323.352 59.875 323.523 59.7344 323.68 59.5781C323.867 59.4219 324.055 59.2812 324.242 59.1562C324.43 59 324.648 58.8906 324.898 58.8281V58.3125C325.461 58.0625 325.867 57.7812 326.117 57.4688C326.398 57.125 326.727 56.7188 327.102 56.25C327.383 56.2188 327.602 56.2031 327.758 56.2031C327.945 56.2031 328.211 56.1719 328.555 56.1094C328.805 55.6719 329.023 55.3438 329.211 55.125C329.43 54.9062 329.742 54.6719 330.148 54.4219C330.523 54.6094 330.93 54.7344 331.367 54.7969C331.836 54.8594 332.242 55.0625 332.586 55.4062C332.617 55.7188 332.711 55.9688 332.867 56.1562C333.023 56.3125 333.195 56.4688 333.383 56.625C333.57 56.75 333.742 56.8906 333.898 57.0469C334.086 57.2031 334.211 57.4219 334.273 57.7031C334.398 57.7344 334.477 57.7188 334.508 57.6562C334.57 57.5938 334.664 57.5781 334.789 57.6094C334.883 58.0469 334.992 58.3438 335.117 58.5C335.242 58.625 335.367 58.8906 335.492 59.2969C335.336 59.6094 335.211 59.9375 335.117 60.2812C335.055 60.5938 334.867 60.8281 334.555 60.9844C334.523 61.2031 334.586 61.3281 334.742 61.3594C334.898 61.3594 334.992 61.4375 335.023 61.5938C335.055 61.875 335.008 62.0781 334.883 62.2031C335.633 63.4219 336.305 64.7188 336.898 66.0938C337.492 67.4375 338.164 68.7188 338.914 69.9375ZM333.055 74.3906C333.18 74.0469 333.336 73.7656 333.523 73.5469C333.742 73.3281 333.867 73 333.898 72.5625C333.742 72.3125 333.648 72.125 333.617 72C333.586 71.8438 333.57 71.6094 333.57 71.2969C332.883 70.3281 332.289 69.2969 331.789 68.2031C331.289 67.0781 330.727 66.0312 330.102 65.0625C330.039 65.1875 329.93 65.3125 329.773 65.4375C329.617 65.5625 329.445 65.5312 329.258 65.3438C329.195 65.5938 329.086 65.7812 328.93 65.9062C328.773 66 328.602 66.0469 328.414 66.0469C328.227 66.0156 328.023 65.9688 327.805 65.9062C327.617 65.8125 327.445 65.7031 327.289 65.5781C326.383 66.2969 325.477 67 324.57 67.6875C323.664 68.375 322.852 69.1719 322.133 70.0781C322.008 70.1406 321.93 70.1719 321.898 70.1719C321.867 70.1406 321.773 70.1562 321.617 70.2188C321.367 70.8125 321.055 71.3594 320.68 71.8594C320.336 72.3281 319.992 72.8125 319.648 73.3125C319.305 73.8125 319.008 74.3438 318.758 74.9062C318.508 75.4688 318.367 76.125 318.336 76.875C318.867 77.3125 319.492 77.5781 320.211 77.6719C320.93 77.7656 321.664 77.7812 322.414 77.7188C323.195 77.6562 323.945 77.5625 324.664 77.4375C325.414 77.2812 326.102 77.2031 326.727 77.2031C328.039 76.8906 329.164 76.4844 330.102 75.9844C331.039 75.4531 332.023 74.9219 333.055 74.3906ZM368.492 57.3281C368.555 58.0156 368.664 58.6094 368.82 59.1094C368.977 59.6094 369.148 60.0938 369.336 60.5625C369.492 61 369.633 61.4375 369.758 61.875C369.914 62.2812 370.023 62.7812 370.086 63.375C369.836 64.1875 369.648 64.9375 369.523 65.625C369.43 66.3125 369.32 67.0312 369.195 67.7812C368.695 68.875 368.211 69.8438 367.742 70.6875C367.273 71.5312 366.898 72.2656 366.617 72.8906C366.461 73.0469 366.32 73.2344 366.195 73.4531C366.102 73.6406 365.992 73.8438 365.867 74.0625C365.805 74.1562 365.727 74.2969 365.633 74.4844C365.539 74.6719 365.461 74.7969 365.398 74.8594L364.461 74.5312L364.273 75.7031L363.617 75.8906L363.148 76.4531C362.555 77.4844 361.93 78.3594 361.273 79.0781C360.617 79.7656 359.867 80.3906 359.023 80.9531C358.211 81.4844 357.273 81.9844 356.211 82.4531C355.18 82.9219 354.008 83.4375 352.695 84C352.164 83.9375 351.695 83.9062 351.289 83.9062C350.914 83.875 350.555 83.8438 350.211 83.8125C349.617 83.8125 348.883 83.7656 348.008 83.6719C347.914 83.4219 347.773 83.25 347.586 83.1562C347.398 83.0625 347.227 83.0156 347.07 83.0156C346.539 82.7656 346.133 82.4062 345.852 81.9375C345.602 81.4375 345.352 80.9062 345.102 80.3438C344.945 80 344.789 79.6875 344.633 79.4062C344.477 79.0938 344.305 78.7812 344.117 78.4688L344.914 78.2344L343.883 77.1094C343.82 77.0156 343.742 76.9375 343.648 76.875C343.555 76.7812 343.477 76.6875 343.414 76.5938L343.367 75.8438C343.273 73.6875 343.227 71.7188 343.227 69.9375C343.258 68.125 343.508 66.5156 343.977 65.1094V64.5938C344.07 63.9062 344.164 63.3438 344.258 62.9062C344.352 62.4375 344.43 62 344.492 61.5938C344.586 60.9062 344.727 60.2656 344.914 59.6719C345.352 59.5781 345.68 59.4062 345.898 59.1562C346.117 58.875 346.305 58.625 346.461 58.4062C346.898 58.375 347.195 58.4375 347.352 58.5938C347.508 58.75 347.664 59 347.82 59.3438C347.977 59.625 348.164 59.9375 348.383 60.2812C348.633 60.625 348.992 60.8906 349.461 61.0781C349.523 61.3281 349.602 61.5938 349.695 61.875C349.82 62.125 349.945 62.4062 350.07 62.7188C350.32 63.25 350.539 63.8125 350.727 64.4062C350.945 64.9688 351.07 65.5156 351.102 66.0469C350.789 66.6406 350.539 67.3281 350.352 68.1094C350.195 68.8906 350.086 69.6875 350.023 70.5C349.992 71.2812 350.008 72.0469 350.07 72.7969C350.164 73.5156 350.305 74.125 350.492 74.625L350.773 75.2344L351.57 75.1406C352.508 74.8906 353.352 74.625 354.102 74.3438C354.883 74.0312 355.602 73.6719 356.258 73.2656C356.914 72.8594 357.539 72.3906 358.133 71.8594C358.727 71.2969 359.352 70.6562 360.008 69.9375C360.664 69.2188 361.227 68.4062 361.695 67.5C362.195 66.5625 362.602 65.5938 362.914 64.5938C363.258 63.5938 363.508 62.6094 363.664 61.6406C363.852 60.6406 363.977 59.7031 364.039 58.8281C364.57 58.6406 364.836 58.2656 364.836 57.7031L364.742 57.1875C364.617 57 364.617 56.7812 364.742 56.5312C364.93 55.9375 365.367 55.4844 366.055 55.1719C366.555 55.4844 366.992 55.8281 367.367 56.2031C367.773 56.5781 368.148 56.9531 368.492 57.3281ZM376.461 79.125C376.117 80.375 375.805 81.3281 375.523 81.9844C375.273 82.6094 374.883 83.2656 374.352 83.9531C373.945 83.8906 373.664 83.9375 373.508 84.0938C373.352 84.25 373.18 84.3906 372.992 84.5156C372.711 84.5781 372.508 84.5781 372.383 84.5156C372.258 84.4531 372.148 84.375 372.055 84.2812C371.961 84.2188 371.836 84.1406 371.68 84.0469C371.555 83.9844 371.352 83.9531 371.07 83.9531C371.008 83.7031 370.93 83.4688 370.836 83.25C370.773 83.0312 370.57 82.9531 370.227 83.0156C370.289 82.7656 370.305 82.5625 370.273 82.4062C370.242 82.2188 370.195 82.0625 370.133 81.9375C370.102 81.7812 370.07 81.6406 370.039 81.5156C370.008 81.3594 370.023 81.1719 370.086 80.9531C369.93 80.9531 369.805 80.8438 369.711 80.625C369.617 80.4062 369.508 80.1875 369.383 79.9688C369.477 79.4062 369.57 78.875 369.664 78.375C369.758 77.875 369.867 77.4062 369.992 76.9688C370.148 76.5312 370.273 76.0938 370.367 75.6562C370.461 75.2188 370.414 74.7656 370.227 74.2969C370.352 74.3906 370.445 74.375 370.508 74.25C370.57 74.0938 370.617 73.9062 370.648 73.6875C370.68 73.4375 370.695 73.2031 370.695 72.9844C370.695 72.7344 370.68 72.5312 370.648 72.375C370.961 71.5625 371.211 70.7344 371.398 69.8906C371.617 69.0156 371.805 68.1562 371.961 67.3125C372.148 66.4688 372.336 65.6406 372.523 64.8281C372.711 64.0156 372.961 63.2656 373.273 62.5781C373.617 62.5156 373.992 62.5625 374.398 62.7188C374.836 62.8438 375.102 63.0156 375.195 63.2344C376.008 62.6094 376.727 61.8594 377.352 60.9844C377.977 60.0781 378.617 59.2031 379.273 58.3594C379.93 57.5156 380.648 56.7656 381.43 56.1094C382.242 55.4531 383.258 55.0625 384.477 54.9375C385.102 55.4062 385.789 55.8906 386.539 56.3906C387.32 56.8594 387.961 57.4844 388.461 58.2656C388.711 58.3906 388.914 58.5312 389.07 58.6875C389.258 58.8125 389.477 58.9531 389.727 59.1094V59.6719C390.102 60.0156 390.398 60.4219 390.617 60.8906C390.867 61.3281 391.086 61.8125 391.273 62.3438C391.461 62.8438 391.648 63.3594 391.836 63.8906C392.023 64.3906 392.242 64.875 392.492 65.3438C392.43 65.5 392.398 65.6406 392.398 65.7656C392.398 65.8594 392.414 65.9688 392.445 66.0938C392.508 66.2188 392.555 66.3438 392.586 66.4688C392.617 66.5938 392.617 66.7656 392.586 66.9844C392.492 68.3594 392.039 69.4688 391.227 70.3125C390.445 71.1562 389.492 71.8594 388.367 72.4219C387.242 72.9531 386.039 73.4062 384.758 73.7812C383.477 74.1562 382.32 74.5625 381.289 75C381.289 75.125 381.336 75.1875 381.43 75.1875C381.555 75.1875 381.602 75.2656 381.57 75.4219C382.32 75.8906 382.914 76.2656 383.352 76.5469C383.789 76.8281 384.195 77.0625 384.57 77.25C384.977 77.4375 385.398 77.6094 385.836 77.7656C386.305 77.8906 386.945 78.0469 387.758 78.2344C388.57 78.4219 389.195 78.5781 389.633 78.7031C390.102 78.7969 390.523 78.8906 390.898 78.9844C391.273 79.0469 391.648 79.1094 392.023 79.1719C392.43 79.2031 392.992 79.25 393.711 79.3125C393.992 79.5938 394.227 79.9375 394.414 80.3438C394.633 80.7188 394.773 81.1094 394.836 81.5156C394.898 81.8906 394.914 82.2656 394.883 82.6406C394.852 82.9844 394.742 83.2656 394.555 83.4844C394.586 83.5781 394.648 83.625 394.742 83.625C394.867 83.5938 394.992 83.5938 395.117 83.625C394.93 83.75 394.773 83.9062 394.648 84.0938C394.523 84.2812 394.398 84.4688 394.273 84.6562C394.148 84.8438 394.008 85 393.852 85.125C393.695 85.2812 393.477 85.375 393.195 85.4062C392.227 85.7812 391.008 85.7969 389.539 85.4531C388.07 85.1406 386.211 84.5469 383.961 83.6719C382.836 83.2344 381.914 82.8594 381.195 82.5469C380.508 82.2031 379.898 81.875 379.367 81.5625C378.867 81.2188 378.398 80.8594 377.961 80.4844C377.555 80.1094 377.055 79.6562 376.461 79.125ZM383.164 63.0469C382.82 63.5469 382.43 64 381.992 64.4062C381.586 64.8125 381.18 65.2344 380.773 65.6719C380.398 66.0781 380.055 66.5469 379.742 67.0781C379.43 67.5781 379.211 68.1719 379.086 68.8594C380.18 68.7344 381.32 68.4375 382.508 67.9688C383.695 67.4688 384.82 67 385.883 66.5625C385.758 65.5938 385.414 64.8125 384.852 64.2188C384.32 63.625 383.758 63.2344 383.164 63.0469ZM445.086 83.1562C444.773 83.3125 444.477 83.4531 444.195 83.5781C443.945 83.7031 443.648 83.7656 443.305 83.7656C442.086 82.8594 441.445 81.2812 441.383 79.0312C441.352 76.7812 441.836 73.9219 442.836 70.4531C442.992 70.3594 443.07 70.1719 443.07 69.8906L442.648 69.4219C442.523 69.4219 442.398 69.4375 442.273 69.4688C442.18 69.5 442.102 69.6094 442.039 69.7969C441.227 70.3906 440.336 71.0156 439.367 71.6719C438.398 72.2969 437.383 72.8906 436.32 73.4531C435.289 73.9844 434.227 74.4219 433.133 74.7656C432.07 75.1094 431.023 75.2812 429.992 75.2812C427.367 75.2812 425.398 73.9531 424.086 71.2969L423.711 70.5938L423.336 71.2031C423.242 71.3281 423.102 71.5938 422.914 72C422.727 72.375 422.539 72.8125 422.352 73.3125C422.164 73.8125 421.992 74.3281 421.836 74.8594C421.711 75.3594 421.664 75.7969 421.695 76.1719C421.414 76.4531 421.117 76.7812 420.805 77.1562C420.492 77.5312 420.258 77.9531 420.102 78.4219C420.039 78.6719 420.07 78.9062 420.195 79.125C420.133 79.4062 419.992 79.625 419.773 79.7812C419.648 79.9375 419.508 80.0938 419.352 80.25C419.227 80.375 419.117 80.5156 419.023 80.6719C418.961 80.8281 418.914 80.9844 418.883 81.1406C418.883 81.2969 418.867 81.4531 418.836 81.6094C418.836 81.8281 418.805 82.0312 418.742 82.2188C418.211 83.3125 417.789 84.0156 417.477 84.3281C417.164 84.6719 416.742 84.8438 416.211 84.8438C415.961 84.8438 415.555 84.7969 414.992 84.7031C414.586 84.2656 414.211 83.6719 413.867 82.9219C413.555 82.1406 413.305 81.3125 413.117 80.4375C412.961 79.5625 412.883 78.6875 412.883 77.8125C412.914 76.9062 413.07 76.125 413.352 75.4688C413.352 75.4375 413.477 75.125 413.727 74.5312C413.977 73.9375 414.289 73.1719 414.664 72.2344C415.07 71.2969 415.523 70.2656 416.023 69.1406C416.523 67.9844 417.023 66.875 417.523 65.8125C418.023 64.7188 418.492 63.7188 418.93 62.8125C419.398 61.9062 419.789 61.2188 420.102 60.75C420.352 60.375 420.57 60.0312 420.758 59.7188C420.977 59.375 421.18 59.0469 421.367 58.7344C421.93 57.7656 422.461 56.9688 422.961 56.3438C423.492 55.6875 424.258 55.1719 425.258 54.7969C425.945 55.0781 426.445 55.4062 426.758 55.7812L426.852 56.2969C426.977 56.6094 427.164 56.7656 427.414 56.7656C427.758 56.8594 428.039 56.9531 428.258 57.0469C428.508 57.1094 428.773 57.1719 429.055 57.2344C429.273 57.4844 429.477 57.7812 429.664 58.125C429.914 58.5 430.148 58.875 430.367 59.25C430.617 59.5938 430.805 59.9531 430.93 60.3281C431.086 60.6719 431.164 61.0312 431.164 61.4062C431.195 61.7812 431.133 62.1719 430.977 62.5781L431.023 63.0469C431.18 63.3281 431.211 63.7188 431.117 64.2188C431.086 64.4375 431.07 64.6719 431.07 64.9219C431.07 65.1406 431.102 65.3906 431.164 65.6719C431.727 66.1094 432.227 66.3281 432.664 66.3281C433.164 66.3281 433.617 66.2188 434.023 66C434.461 65.75 434.867 65.5 435.242 65.25C435.492 65.0625 435.742 64.9062 435.992 64.7812C436.242 64.625 436.492 64.5312 436.742 64.5C437.305 63.9688 437.805 63.5 438.242 63.0938C438.711 62.6875 439.195 62.2812 439.695 61.875C440.633 61.125 441.539 60.3125 442.414 59.4375C443.289 58.5625 443.992 57.4688 444.523 56.1562C444.836 55.9688 445.164 55.875 445.508 55.875C445.852 55.875 446.211 55.9531 446.586 56.1094C446.961 56.2656 447.32 56.4219 447.664 56.5781C447.758 56.6406 447.836 56.6875 447.898 56.7188C447.992 56.75 448.07 56.7812 448.133 56.8125C448.133 57.125 448.258 57.3906 448.508 57.6094C448.633 57.7031 448.711 57.7656 448.742 57.7969C448.773 57.8281 448.82 57.8594 448.883 57.8906C449.352 58.1406 449.648 58.3906 449.773 58.6406C449.992 59.3594 450.383 59.9062 450.945 60.2812C450.883 60.5938 450.883 60.8906 450.945 61.1719C451.039 61.4219 451.148 61.6875 451.273 61.9688C451.305 62.0625 451.336 62.1562 451.367 62.25C451.398 62.3438 451.445 62.4531 451.508 62.5781L450.617 62.4844L450.758 63.375C450.82 63.8125 450.773 64.2969 450.617 64.8281C450.492 65.3594 450.336 65.7812 450.148 66.0938C450.18 66.9062 450.195 67.5469 450.195 68.0156C450.227 68.4531 450.211 68.875 450.148 69.2812C450.086 69.6562 449.992 70.0156 449.867 70.3594C449.773 70.7031 449.633 71.0781 449.445 71.4844C449.57 73.4844 449.336 75.3125 448.742 76.9688C448.18 78.5938 447.586 80.125 446.961 81.5625C446.898 81.7188 446.82 81.875 446.727 82.0312C446.664 82.1875 446.602 82.3438 446.539 82.5C446.258 82.5938 446.008 82.7031 445.789 82.8281C445.57 82.9219 445.336 83.0312 445.086 83.1562ZM476.539 80.0625C476.352 80.5938 476.07 81.1406 475.695 81.7031C475.352 82.2344 474.93 82.7188 474.43 83.1562C473.961 83.5625 473.43 83.9062 472.836 84.1875C472.242 84.4688 471.617 84.625 470.961 84.6562C470.555 84.5625 470.273 84.4531 470.117 84.3281C469.992 84.2344 469.852 84.1406 469.695 84.0469C469.602 83.9844 469.508 83.9375 469.414 83.9062C469.352 83.8438 469.289 83.7969 469.227 83.7656L468.664 83.5312L468.852 82.9219C468.914 82.6719 468.898 82.4844 468.805 82.3594C468.711 82.2031 468.523 82 468.242 81.75C468.148 81.6562 468.055 81.5625 467.961 81.4688C467.867 81.375 467.789 81.2812 467.727 81.1875L466.93 80.2969L468.195 79.9688C468.977 79.75 469.492 79.4688 469.742 79.125C470.023 78.7812 470.133 78.2031 470.07 77.3906C469.445 77.2656 468.914 77.25 468.477 77.3438C468.07 77.4375 467.648 77.5469 467.211 77.6719C466.648 77.8281 466.07 77.9688 465.477 78.0938C464.914 78.1875 464.289 78.2344 463.602 78.2344C463.352 78.2344 463.117 78.2344 462.898 78.2344C462.68 78.2031 462.445 78.1719 462.195 78.1406L461.727 78.0469C461.664 77.7031 461.602 77.5156 461.539 77.4844C461.477 77.4219 461.414 77.3594 461.352 77.2969C461.195 77.1406 461.023 76.9375 460.836 76.6875C460.68 76.4062 460.648 76.0625 460.742 75.6562C460.586 75.375 460.492 75.0938 460.461 74.8125C460.273 75.1875 460.133 75.5781 460.039 75.9844L459.852 76.4531L459.383 76.5469C459.32 76.5781 459.273 76.6562 459.242 76.7812C459.211 76.875 459.195 76.9531 459.195 77.0156L458.961 77.8125C458.898 77.875 458.836 77.9375 458.773 78C458.711 78.0312 458.648 78.0781 458.586 78.1406C458.523 78.4219 458.445 78.7031 458.352 78.9844C458.258 79.2656 458.164 79.5312 458.07 79.7812C457.914 80.1875 457.773 80.5938 457.648 81C457.555 81.375 457.523 81.75 457.555 82.125L457.367 82.6406C457.211 82.8281 457.039 82.9844 456.852 83.1094C456.664 83.2031 456.477 83.2969 456.289 83.3906C456.227 83.4531 456.133 83.5156 456.008 83.5781C455.914 83.6094 455.836 83.6406 455.773 83.6719L455.633 84.1875L455.07 84.2812C454.727 84.3438 454.477 84.3906 454.32 84.4219C454.195 84.4531 454.039 84.4688 453.852 84.4688L453.383 84.4219C453.039 84.1406 452.773 83.9219 452.586 83.7656C452.398 83.5781 452.18 83.4062 451.93 83.25C451.648 82.875 451.492 82.5938 451.461 82.4062C451.43 82.2188 451.398 82.0469 451.367 81.8906C451.305 81.7031 451.273 81.5469 451.273 81.4219C451.242 81.2969 451.195 81.2031 451.133 81.1406L450.523 80.5781L451.039 80.1562L451.086 79.3594C451.711 77.7656 452.367 76.2344 453.055 74.7656C453.773 73.2969 454.508 71.7969 455.258 70.2656C455.508 69.7656 455.742 69.2656 455.961 68.7656C456.211 68.2656 456.461 67.7656 456.711 67.2656C456.68 67.1719 456.664 67.0625 456.664 66.9375C456.664 66.8125 456.695 66.6719 456.758 66.5156C457.102 65.9844 457.383 65.5156 457.602 65.1094C457.82 64.6719 458.039 64.2344 458.258 63.7969C458.508 63.2656 458.758 62.75 459.008 62.25C459.289 61.75 459.633 61.2344 460.039 60.7031L460.789 60.375C460.883 60.3438 460.992 60.3125 461.117 60.2812C461.242 60.2188 461.383 60.1875 461.539 60.1875L462.242 60.2812C463.117 59.875 463.883 59.3125 464.539 58.5938C465.195 57.8438 465.867 56.9531 466.555 55.9219L467.023 55.2656L467.633 55.6406C467.789 55.7344 468.008 55.8281 468.289 55.9219C468.57 55.9844 468.867 56.0625 469.18 56.1562C469.742 56.2812 470.273 56.4219 470.773 56.5781C471.273 56.7344 471.68 56.9688 471.992 57.2812C472.18 57.7812 472.289 58.1562 472.32 58.4062C472.352 58.6562 472.398 58.9062 472.461 59.1562C472.555 59.6875 472.633 60.2188 472.695 60.75C472.789 61.2812 472.852 61.875 472.883 62.5312C473.039 63.0625 473.164 63.5938 473.258 64.125C473.383 64.625 473.492 65.1406 473.586 65.6719C473.742 66.4219 473.898 67.1562 474.055 67.875C474.211 68.5625 474.414 69.2188 474.664 69.8438C474.914 69.8438 475.07 69.8594 475.133 69.8906C475.289 69.8281 475.445 69.7812 475.602 69.75C475.789 69.7188 475.992 69.6875 476.211 69.6562L476.727 69.6094L476.914 70.0781C476.945 70.2344 477.102 70.3906 477.383 70.5469C477.789 70.5781 478.086 70.6719 478.273 70.8281C478.461 70.9531 478.633 71.0938 478.789 71.25C478.914 71.375 479.039 71.4688 479.164 71.5312L479.867 71.8125L479.492 72.5156C479.18 73.0781 478.727 73.625 478.133 74.1562C477.57 74.6562 476.93 75.0781 476.211 75.4219C476.242 75.6094 476.258 75.7969 476.258 75.9844C476.289 76.1406 476.336 76.3125 476.398 76.5C476.492 77.0312 476.57 77.5781 476.633 78.1406C476.695 78.7031 476.695 79.2812 476.633 79.875L476.539 80.0625ZM462.992 71.9531C463.93 71.8906 464.773 71.8281 465.523 71.7656C466.305 71.6719 467.164 71.5312 468.102 71.3438C467.883 70.4062 467.648 69.4375 467.398 68.4375C467.148 67.4062 466.883 66.3906 466.602 65.3906L466.32 65.8594C465.695 66.5156 465.086 67.25 464.492 68.0625C463.93 68.875 463.445 69.6406 463.039 70.3594C462.852 70.6406 462.664 70.9219 462.477 71.2031C462.289 71.4844 462.117 71.7656 461.961 72.0469C462.148 72.0156 462.32 72 462.477 72C462.664 72 462.836 71.9844 462.992 71.9531ZM484.695 85.8281C484.539 85.7656 484.367 85.7031 484.18 85.6406L483.617 84.6094L482.867 85.1719C482.648 85.0469 482.477 84.9219 482.352 84.7969C482.227 84.7031 482.086 84.5781 481.93 84.4219C481.586 84.1719 481.289 83.9219 481.039 83.6719C480.789 83.3906 480.648 83.125 480.617 82.875L480.57 82.4062L480.102 82.3125C479.945 81.875 479.82 81.5625 479.727 81.375C479.633 81.1562 479.477 80.9844 479.258 80.8594C479.07 79.2969 479.133 78 479.445 76.9688C479.758 75.9062 480.227 74.7812 480.852 73.5938C481.227 73.4688 481.555 73.2969 481.836 73.0781C482.148 72.8594 482.43 72.6406 482.68 72.4219C482.93 72.2031 483.18 72.0156 483.43 71.8594C483.68 71.6719 483.914 71.5625 484.133 71.5312L484.555 71.2969C485.086 70.6719 485.727 70.125 486.477 69.6562C487.227 69.1562 488.008 68.6562 488.82 68.1562C489.477 67.7812 490.133 67.3906 490.789 66.9844C491.477 66.5469 492.086 66.0781 492.617 65.5781C492.867 65.6094 493.086 65.5625 493.273 65.4375C493.398 65.2812 493.461 65.0781 493.461 64.8281C493.523 64.7656 493.586 64.7188 493.648 64.6875C493.742 64.625 493.82 64.5625 493.883 64.5C494.102 64.3438 494.398 64.1562 494.773 63.9375C495.148 63.7188 495.398 63.4375 495.523 63.0938L496.555 62.1094L495.148 62.1562C494.43 62.1875 493.664 62.2344 492.852 62.2969C492.07 62.3594 491.398 62.4219 490.836 62.4844C490.367 62.5469 489.883 62.5938 489.383 62.625C488.883 62.625 488.336 62.6406 487.742 62.6719C486.773 62.0469 486.07 61.125 485.633 59.9062C485.227 58.6562 485.211 57.4375 485.586 56.25C485.805 56.2188 485.992 56.1719 486.148 56.1094C486.305 56.0156 486.461 55.9375 486.617 55.875C486.898 55.8438 487.086 55.8438 487.18 55.875C487.273 55.9062 487.398 55.9219 487.555 55.9219C488.43 55.7656 489.148 55.6719 489.711 55.6406C490.305 55.5781 490.852 55.5469 491.352 55.5469C491.883 55.5469 492.398 55.5781 492.898 55.6406C493.398 55.6719 493.883 55.7656 494.352 55.9219C495.445 55.9219 496.555 55.875 497.68 55.7812C498.805 55.6875 499.961 55.7656 501.148 56.0156C501.992 55.7344 502.82 55.6562 503.633 55.7812C504.477 55.9062 505.211 56.2812 505.836 56.9062C505.867 57.4375 505.992 57.8438 506.211 58.125C506.461 58.375 506.773 58.5625 507.148 58.6875C507.398 59.5938 507.414 60.3906 507.195 61.0781C507.008 61.7656 506.68 62.375 506.211 62.9062C505.742 63.4375 505.18 63.9219 504.523 64.3594C503.898 64.7656 503.273 65.1562 502.648 65.5312C502.461 65.8125 502.227 66.0469 501.945 66.2344C501.695 66.3906 501.461 66.5938 501.242 66.8438C500.211 68.1562 499.023 69.3125 497.68 70.3125C496.367 71.2812 495.008 72.2188 493.602 73.125C492.602 73.7812 491.602 74.4531 490.602 75.1406C489.633 75.7969 488.695 76.5156 487.789 77.2969L487.32 77.7188L487.742 78.1875C488.117 78.5625 488.555 78.75 489.055 78.75C489.336 78.75 489.602 78.7188 489.852 78.6562C490.133 78.5625 490.398 78.4688 490.648 78.375C490.898 78.3125 491.117 78.25 491.305 78.1875C491.492 78.0938 491.664 78.0469 491.82 78.0469H492.43C492.68 77.8906 492.93 77.7656 493.18 77.6719C493.43 77.5781 493.68 77.5 493.93 77.4375C494.18 77.375 494.414 77.3125 494.633 77.25C494.852 77.1875 495.086 77.0781 495.336 76.9219C496.023 76.9219 496.664 76.8281 497.258 76.6406C497.883 76.4531 498.508 76.2344 499.133 75.9844C499.508 75.8281 499.867 75.6875 500.211 75.5625C500.586 75.4375 500.961 75.3438 501.336 75.2812C501.461 75.4375 501.602 75.5781 501.758 75.7031C501.945 75.7969 502.117 75.8906 502.273 75.9844C502.68 76.2344 502.898 76.4688 502.93 76.6875L503.07 78L503.961 77.1094C504.336 77.4219 504.539 77.7812 504.57 78.1875C504.602 78.5625 504.555 79.0625 504.43 79.6875C503.43 80.6875 502.18 81.4688 500.68 82.0312C499.18 82.5938 497.586 83.1406 495.898 83.6719C495.555 83.7656 495.195 83.8594 494.82 83.9531C494.477 84.0469 494.133 84.1562 493.789 84.2812L493.836 83.4844L492.805 84.1406C492.68 84.2344 492.57 84.3281 492.477 84.4219C492.414 84.5156 492.352 84.6094 492.289 84.7031C491.477 84.9219 490.805 85.0781 490.273 85.1719C489.742 85.2656 489.242 85.3594 488.773 85.4531C488.242 85.5781 487.742 85.6719 487.273 85.7344C486.805 85.8281 486.305 85.875 485.773 85.875C485.617 85.875 485.445 85.875 485.258 85.875C485.07 85.875 484.883 85.8594 484.695 85.8281ZM532.086 57.6094C532.117 57.8281 532.117 58 532.086 58.125C532.086 58.2188 532.07 58.3125 532.039 58.4062C532.039 58.5 532.039 58.6094 532.039 58.7344C532.039 58.8281 532.07 58.9844 532.133 59.2031C531.477 60.2656 530.711 61 529.836 61.4062C528.992 61.7812 528.07 62.0625 527.07 62.25C526.07 62.4062 525.039 62.5781 523.977 62.7656C522.945 62.9531 521.914 63.3594 520.883 63.9844C520.477 63.8281 520.102 63.8281 519.758 63.9844C519.445 64.1406 518.977 64.1875 518.352 64.125C518.164 64.3125 517.93 64.4531 517.648 64.5469C517.367 64.6094 517.086 64.6875 516.805 64.7812C516.93 65.0625 516.977 65.3594 516.945 65.6719C516.945 65.9531 516.992 66.1875 517.086 66.375C518.18 66.4688 519.383 66.4531 520.695 66.3281C522.039 66.2031 523.352 66.125 524.633 66.0938C524.664 66.25 524.648 66.3594 524.586 66.4219C524.523 66.4531 524.508 66.5312 524.539 66.6562C524.758 66.8125 524.977 67.0156 525.195 67.2656C525.414 67.4844 525.633 67.7031 525.852 67.9219C526.07 68.1406 526.289 68.3281 526.508 68.4844C526.758 68.6094 527.039 68.6562 527.352 68.625C527.477 68.875 527.555 69.1562 527.586 69.4688C527.648 69.75 527.617 70.0469 527.492 70.3594C526.992 70.7031 526.492 71.0625 525.992 71.4375C525.492 71.7812 524.961 72.0938 524.398 72.375C523.867 72.6562 523.289 72.8906 522.664 73.0781C522.07 73.2344 521.398 73.2969 520.648 73.2656C520.492 73.2656 520.367 73.2656 520.273 73.2656C520.211 73.2656 520.117 73.2188 519.992 73.125C519.742 73.2812 519.383 73.3281 518.914 73.2656C518.477 73.2031 518.133 73.25 517.883 73.4062C517.539 73.25 517.117 73.1875 516.617 73.2188C516.148 73.2188 515.727 73.1562 515.352 73.0312C514.852 73.6875 514.398 74.3906 513.992 75.1406C513.586 75.8906 513.227 76.6875 512.914 77.5312C513.977 77.6875 514.852 77.75 515.539 77.7188C516.258 77.6875 516.93 77.6406 517.555 77.5781C518.18 77.4844 518.82 77.4062 519.477 77.3438C520.133 77.25 520.961 77.2188 521.961 77.25C522.586 76.9062 523.32 76.6875 524.164 76.5938C525.039 76.4688 525.836 76.2812 526.555 76.0312C526.805 76.125 527.023 76.2969 527.211 76.5469C527.398 76.7656 527.57 76.9844 527.727 77.2031C527.914 77.3906 528.102 77.5625 528.289 77.7188C528.477 77.875 528.711 77.9375 528.992 77.9062C529.117 78.0312 529.195 78.1875 529.227 78.375C529.289 78.5312 529.336 78.6875 529.367 78.8438C529.398 79 529.445 79.1406 529.508 79.2656C529.602 79.3594 529.742 79.3906 529.93 79.3594C529.461 80.3906 528.914 81.1875 528.289 81.75C527.695 82.2812 527.008 82.6875 526.227 82.9688C525.445 83.25 524.57 83.4688 523.602 83.625C522.664 83.7812 521.617 83.9688 520.461 84.1875C520.18 84.25 519.945 84.2344 519.758 84.1406C519.57 84.0781 519.352 84.0469 519.102 84.0469C518.383 84.2031 517.523 84.3438 516.523 84.4688C515.523 84.5938 514.508 84.6406 513.477 84.6094C512.445 84.5781 511.461 84.4375 510.523 84.1875C509.586 83.9688 508.82 83.5625 508.227 82.9688C507.977 82.75 507.805 82.5 507.711 82.2188C507.648 81.9062 507.445 81.6719 507.102 81.5156C507.07 81.1094 507.008 80.6562 506.914 80.1562C506.82 79.6562 506.727 79.1406 506.633 78.6094C506.539 78.0469 506.461 77.5 506.398 76.9688C506.367 76.4375 506.398 75.9531 506.492 75.5156C506.586 75.0469 506.773 74.625 507.055 74.25C507.367 73.875 507.477 73.4688 507.383 73.0312C507.539 73 507.633 72.9219 507.664 72.7969C507.695 72.6406 507.82 72.5781 508.039 72.6094C508.227 72.0469 508.43 71.5156 508.648 71.0156C508.867 70.5156 509.086 70.0312 509.305 69.5625C509.555 69.0938 509.789 68.625 510.008 68.1562C510.258 67.6562 510.492 67.1094 510.711 66.5156C510.273 66.1094 509.945 65.6719 509.727 65.2031C509.539 64.7031 509.398 64.2188 509.305 63.75C509.211 63.25 509.133 62.75 509.07 62.25C509.008 61.7188 508.898 61.1875 508.742 60.6562C509.055 60.1875 509.43 59.8125 509.867 59.5312C510.336 59.2188 510.836 58.9688 511.367 58.7812C511.898 58.5938 512.477 58.4375 513.102 58.3125C513.727 58.1875 514.383 58.0469 515.07 57.8906C516.32 57.4844 517.43 57.1719 518.398 56.9531C519.398 56.7344 520.367 56.5625 521.305 56.4375C522.273 56.2812 523.273 56.1406 524.305 56.0156C525.336 55.8906 526.508 55.7031 527.82 55.4531C528.102 55.7344 528.367 55.875 528.617 55.875C528.742 55.5938 528.883 55.5156 529.039 55.6406C529.227 55.7344 529.305 55.6406 529.273 55.3594C529.586 55.8906 529.977 56.3438 530.445 56.7188C530.945 57.0625 531.492 57.3594 532.086 57.6094Z" fill="white"/>
<rect x="585" y="20" width="81" height="29" rx="10" fill="#442421"/>
<rect x="-33" y="20" width="81" height="29" rx="10" fill="#442421"/>
<rect x="610" y="55" width="30" height="29" rx="10" fill="#442421"/>
<defs>
<linearGradient id="paint0_linear" x1="320" y1="379" x2="320" y2="640" gradientUnits="userSpaceOnUse">
<stop stop-color="#59391A" stop-opacity="0"/>
<stop offset="1" stop-color="#1E0000"/>
</linearGradient>
<linearGradient id="paint1_linear" x1="320" y1="0" x2="320" y2="656.154" gradientUnits="userSpaceOnUse">
<stop offset="0.0744274" stop-color="#73441B"/>
<stop offset="0.9999" stop-color="white" stop-opacity="0"/>
<stop offset="1" stop-color="#B78353"/>
</linearGradient>
<linearGradient id="paint2_linear" x1="320" y1="131.5" x2="320" y2="361.5" gradientUnits="userSpaceOnUse">
<stop stop-color="#E59856" stop-opacity="0"/>
<stop offset="1" stop-color="#59391A" stop-opacity="0.48"/>
</linearGradient>
</defs>
</svg>
